﻿studentID, studentSnumber,lastName,firstName,email,phone,LocationID,
1,s522501, Pasupuleti, Ramesh, s522501@mail.nwmissouri.edu,6605281593,1, 
2,s522521, Thummala, Rohan, s522521@mail.nwmissouri.edu,6605281894,2,
3,s522592, Kethireddy, Swagath, s522592@mail.nwmissouri.edu,9704729568,3,
4,s522551, Mohammod, sardar, s522551@mail.nwmissouri.edu,6605681693,2,
5,s522542, Kethireddy, Bhanusatvik, s522592@mail.nwmissouri.edu,6605281736,3,
6,s522561, Rudraraju, sandeep, s522541@mail.nwmissouri.edu,6605683493,5,